<?xml version="1.0" encoding="utf-8"?>
<!-- Generator: Adobe Illustrator 25.2.1, SVG Export Plug-In . SVG Version: 6.00 Build 0)  -->
<svg version="1.1" id="Camada_1" xmlns="http://www.w3.org/2000/svg" xmlns:xlink="http://www.w3.org/1999/xlink" x="0px" y="0px"
	 viewBox="0 0 417 417" style="enable-background:new 0 0 417 417;" xml:space="preserve">
<style type="text/css">
	.st0{fill:#FFFFFF;}
</style>
<path class="st0" d="M159.7,364.2c-4,4-9.4,6.2-15.1,6.2s-11.1-2.2-15.1-6.2L9.4,243.9c-12.5-12.5-12.5-32.7,0-45.2l15.1-15.1
	c12.5-12.5,32.7-12.5,45.2,0l75.1,75.1L347.4,56c12.5-12.5,32.7-12.5,45.2,0l15.1,15.1c12.5,12.5,12.5,32.7,0,45.2L159.7,364.2z"/>
</svg>
